<?xml version="1.0" encoding="UTF-8"?>
<svg width="32px" height="32px" viewBox="0 0 32 32" version="1.1" xmlns="http://www.w3.org/2000/svg" xmlns:xlink="http://www.w3.org/1999/xlink">
    <!-- Generator: Sketch 48.2 (47327) - http://www.bohemiancoding.com/sketch -->
    <title>Icons/Small/Info</title>
    <desc>Created with Sketch.</desc>
    <defs></defs>
    <g id="Symbols" stroke="none" stroke-width="1" fill="none" fill-rule="evenodd">
        <g id="Icons/Small/Info" fill="#9798A1">
            <path d="M15.2,20 L16.8,20 L16.8,15.2 L15.2,15.2 L15.2,20 Z M16,8 C11.58,8 8,11.58 8,16 C8,20.42 11.58,24 16,24 C20.42,24 24,20.42 24,16 C24,11.58 20.42,8 16,8 Z M16,22.4 C12.472,22.4 9.6,19.528 9.6,16 C9.6,12.472 12.472,9.6 16,9.6 C19.528,9.6 22.4,12.472 22.4,16 C22.4,19.528 19.528,22.4 16,22.4 Z M15.2,13.6 L16.8,13.6 L16.8,12 L15.2,12 L15.2,13.6 Z" id="Page-1"></path>
        </g>
    </g>
</svg>