<?xml version="1.0" encoding="UTF-8"?>
<svg width="115px" height="48px" viewBox="0 0 115 48" version="1.1" xmlns="http://www.w3.org/2000/svg" xmlns:xlink="http://www.w3.org/1999/xlink">
    <!-- Generator: Sketch 48.2 (47327) - http://www.bohemiancoding.com/sketch -->
    <title>bmc</title>
    <desc>Created with Sketch.</desc>
    <defs></defs>
    <g id="Page-1" stroke="none" stroke-width="1" fill="none" fill-rule="evenodd">
        <g id="bmc" fill-rule="nonzero">
            <g id="Inte-list">
                <g id="Group-Copy-4">
                    <g id="bmc_logo_header-Clipped">
                        <g id="bmc_logo_header" transform="translate(-0.000000, 0.000000)">
                            <g id="Group">
                                <g transform="translate(40.000000, 8.000000)" fill="#414042" id="Shape">
                                    <path d="M6.1,31 L0.3,31 L0.3,0.6 L6.1,0.6 L6.1,11.8 C7,10.7 9.1,9.6 11.3,9.6 C17.4,9.6 20.8,14.6 20.8,20.6 C20.8,26.6 17.4,31.5 11.3,31.5 C9.1,31.5 7,30.4 6.1,29.3 L6.1,31 Z M6.1,24 C6.8,25.5 8.3,26.4 10,26.4 C13.1,26.4 15,23.9 15,20.5 C15,17.1 13.1,14.6 10,14.6 C8.3,14.6 6.7,15.6 6.1,17 L6.1,24 Z"></path>
                                    <path d="M46.3,9.6 C50.6,9.6 53.2,12.6 53.2,17.3 L53.2,31 L47.4,31 L47.4,18.5 C47.4,16.3 46.4,14.8 44.4,14.8 C42.9,14.8 41.5,15.7 41.2,17.5 L41.2,31 L35.4,31 L35.4,18.5 C35.4,16.3 34.5,14.8 32.5,14.8 C31,14.8 29.6,15.7 29.2,17.5 L29.2,31 L23.4,31 L23.4,10.1 L29,10.1 L29,11.8 C30,10.5 32,9.6 34.3,9.6 C36.8,9.6 38.7,10.7 39.9,12.3 C41.3,10.8 43.3,9.6 46.3,9.6 Z"></path>
                                    <path d="M65.5,9.6 C70.8,9.6 74.1,12.7 74.7,17.1 L69,17.1 C68.7,15.5 67.4,14.5 65.5,14.5 C62.8,14.5 61.2,16.9 61.2,20.5 C61.2,24 62.8,26.4 65.5,26.4 C67.4,26.4 68.6,25.4 69,23.8 L74.7,23.8 C74.1,28.3 70.8,31.3 65.5,31.3 C59.6,31.3 55.4,26.8 55.4,20.4 C55.5,14 59.6,9.6 65.5,9.6 Z"></path>
                                </g>
                                <path d="M3.9,48 C2,48 0,46.5 0,43.6 L0,36.8 C0,34.1 1.7,31 4.1,29.7 L13.6,24.1 L4.1,18.5 C1.8,17 0,14 0,11.3 L0,4.4 C0,1.5 2,0 4,0 C4.8,0 5.7,0.2 6.5,0.7 L27.9,13.4 C29.4,14.3 30.2,15.7 30.2,17.1 C30.2,18.6 29.3,20 27.9,20.8 L22.8,23.8 L27.9,26.8 C29.4,27.7 30.3,29.1 30.3,30.5 C30.3,32 29.4,33.4 27.9,34.2 L6.5,47.3 C5.6,47.8 4.8,48 3.9,48 Z M18.2,26.8 L6.5,33.7 C5.6,34.2 4.7,35.8 4.7,36.8 L4.7,42.9 L25,30.9 L18.2,26.8 Z M4.7,5.2 L4.7,11.3 C4.7,12.3 5.6,13.9 6.5,14.4 L18.2,21.3 L25.1,17.2 L4.7,5.2 Z" id="Shape" fill="#FE5000"></path>
                            </g>
                        </g>
                    </g>
                </g>
            </g>
        </g>
    </g>
</svg>