<?xml version="1.0" encoding="UTF-8"?>
<svg width="160px" height="72px" viewBox="0 0 160 72" version="1.1" xmlns="http://www.w3.org/2000/svg" xmlns:xlink="http://www.w3.org/1999/xlink">
    <!-- Generator: Sketch 48.1 (47250) - http://www.bohemiancoding.com/sketch -->
    <title>salesforce</title>
    <desc>Created with Sketch.</desc>
    <defs>
        <rect id="path-1" x="0" y="0" width="1440" height="512"></rect>
        <filter x="-0.0%" y="-0.1%" width="100.1%" height="100.2%" filterUnits="objectBoundingBox" id="filter-2">
            <feOffset dx="0" dy="-1" in="SourceAlpha" result="shadowOffsetInner1"></feOffset>
            <feComposite in="shadowOffsetInner1" in2="SourceAlpha" operator="arithmetic" k2="-1" k3="1" result="shadowInnerInner1"></feComposite>
            <feColorMatrix values="0 0 0 0 0.137254902   0 0 0 0 0.145098039   0 0 0 0 0.207843137  0 0 0 0.12 0" type="matrix" in="shadowInnerInner1"></feColorMatrix>
        </filter>
        <rect id="path-3" x="0" y="0" width="196" height="160"></rect>
    </defs>
    <g id="Mockup/Desktop/01-Home/01-home" stroke="none" stroke-width="1" fill="none" fill-rule="evenodd" transform="translate(-316.000000, -2004.000000)">
        <g id="Integrations" transform="translate(0.000000, 1712.000000)">
            <g id="Rectangle-3" fill="black" fill-opacity="1">
                <use filter="url(#filter-2)" xlink:href="#path-1"></use>
            </g>
            <g id="Inte-list" transform="translate(82.000000, 256.000000)">
                <g id="Group-Copy-2" transform="translate(216.000000, 0.000000)">
                    <mask id="mask-4" fill="white">
                        <use xlink:href="#path-3"></use>
                    </mask>
                    <g id="Rectangle"></g>
                    <g id="desk-logo" mask="url(#mask-4)" fill-rule="nonzero">
                        <g transform="translate(18.000000, 41.000000)" id="Shape">
                            <path d="M35.0599489,6.43685318 C37.7770306,3.60485318 41.5601163,1.84773016 45.7440944,1.84773016 C51.3051018,1.84773016 56.157702,4.95014682 58.7409188,9.556127 C60.9873674,8.55195634 63.4727599,7.99356349 66.0875707,7.99356349 C76.1185401,7.99356349 84.2505945,16.1999484 84.2505945,26.3238333 C84.2505945,36.4474841 76.1185401,44.6541032 66.0875707,44.6541032 C64.8628947,44.6541032 63.6665363,44.5309523 62.5094947,44.2975278 C60.2344947,48.3572897 55.8976953,51.1007897 50.9210594,51.1007897 C48.8379635,51.1007897 46.8672017,50.6196588 45.1124491,49.7632222 C42.8058549,55.1914563 37.4309011,58.9976588 31.1682735,58.9976588 C24.6451712,58.9976588 19.0853341,54.8688293 16.9523898,49.0781667 C16.0195485,49.2755357 15.0527729,49.379254 14.0618923,49.379254 C6.29562569,49.379254 0,43.0154484 0,35.1649365 C0,29.9034008 2.82824566,25.3100635 7.03164825,22.8521984 C6.16620742,20.8597778 5.68551097,18.6615595 5.68551097,16.3509603 C5.68551097,7.32185318 13.0115682,0.00234126984 22.0490827,0.00234126984 C27.354998,0.00234126984 32.0702229,2.52599603 35.0599489,6.43685318" fill="#3498DB"></path>
                            <path d="M12.2027625,30.5959484 C12.1496378,30.7340833 12.2217189,30.762881 12.238803,30.7874643 C12.3967729,30.9019523 12.5577852,30.9848333 12.7199676,31.0777818 C13.5788555,31.5331588 14.3907037,31.6666111 15.2388263,31.6666111 C16.9671337,31.6666111 18.0408607,30.7471944 18.0408607,29.2672778 L18.0408607,29.2377778 C18.0408607,27.8693056 16.8290563,27.3717857 15.6933115,27.0131032 L15.5447028,26.964873 C14.6883891,26.686496 13.9486221,26.4462818 13.9486221,25.8818016 L13.9486221,25.8525357 C13.9486221,25.3692977 14.3813425,25.0138929 15.0506667,25.0138929 C15.7953483,25.0138929 16.6776393,25.2615992 17.2465648,25.5757977 C17.2465648,25.5757977 17.4141299,25.6841984 17.4752116,25.5221826 C17.5082097,25.4348532 17.7962999,24.660127 17.8264898,24.5760754 C17.8592538,24.485 17.8016826,24.4171032 17.7427072,24.3810477 C17.0928075,23.9856071 16.1955386,23.716127 15.2666759,23.716127 L15.0941961,23.7168293 C13.5123912,23.7168293 12.4077723,24.6732381 12.4077723,26.042881 L12.4077723,26.072381 C12.4077723,27.5155397 13.6258955,27.9847301 14.767725,28.3111032 L14.9509701,28.3677619 C15.7822426,28.6229603 16.4997769,28.8432738 16.4997769,29.4283571 L16.4997769,29.457623 C16.4997769,29.9933056 16.0333562,30.3913214 15.2821218,30.3913214 C14.9905211,30.3913214 14.0609562,30.3861707 13.0562679,29.7502818 C12.9345726,29.6798095 12.8645977,29.6285357 12.770986,29.5711746 C12.7216057,29.5409722 12.5978042,29.4868889 12.5439774,29.649373 L12.2027625,30.5959484" fill="#FFFFFF"></path>
                            <path d="M37.5029822,30.5959484 C37.4500915,30.7340833 37.5221726,30.762881 37.5392567,30.7874643 C37.6972265,30.9019523 37.8582388,30.9848333 38.0201872,31.0777818 C38.8793092,31.5331588 39.6911573,31.6666111 40.5392799,31.6666111 C42.2675873,31.6666111 43.3410803,30.7471944 43.3410803,29.2672778 L43.3410803,29.2377778 C43.3410803,27.8693056 42.1295099,27.3717857 40.9935311,27.0131032 L40.8451564,26.964873 C39.9888427,26.686496 39.2490757,26.4462818 39.2490757,25.8818016 L39.2490757,25.8525357 C39.2490757,25.3692977 39.6817961,25.0138929 40.3511202,25.0138929 C41.0958019,25.0138929 41.9778589,25.2615992 42.5470184,25.5757977 C42.5470184,25.5757977 42.7145835,25.6841984 42.7756651,25.5221826 C42.8086633,25.4348532 43.0965195,24.660127 43.1269433,24.5760754 C43.1597075,24.485 43.1021362,24.4171032 43.0431608,24.3810477 C42.393027,23.9856071 41.4957582,23.716127 40.5671294,23.716127 L40.3944158,23.7168293 C38.8128448,23.7168293 37.7082259,24.6732381 37.7082259,26.042881 L37.7082259,26.072381 C37.7082259,27.5155397 38.9263491,27.9847301 40.0679447,28.3111032 L40.2514238,28.3677619 C41.0824623,28.6229603 41.8002305,28.8432738 41.8002305,29.4283571 L41.8002305,29.457623 C41.8002305,29.9933056 41.3338099,30.3913214 40.5825753,30.3913214 C40.2909747,30.3913214 39.3611758,30.3861707 38.3564875,29.7502818 C38.2347921,29.6798095 38.1636472,29.630877 38.0714396,29.5711746 C38.0400797,29.5510397 37.8942793,29.4946151 37.844431,29.649373 L37.5029822,30.5959484" fill="#FFFFFF"></path>
                            <path d="M56.2180816,26.1451944 C56.0757917,25.6657023 55.8551019,25.2435714 55.561395,24.8914444 C55.266986,24.538381 54.8944112,24.2548532 54.4534997,24.0488214 C54.0128222,23.8430238 53.4923408,23.7388373 52.9070332,23.7388373 C52.3217256,23.7388373 51.8012441,23.8430238 51.3603327,24.0488214 C50.9194213,24.2548532 50.5466123,24.538381 50.2522034,24.8919127 C49.9584964,25.2447421 49.7373386,25.6664048 49.5957508,26.1451944 C49.4550992,26.6214088 49.3837201,27.1430437 49.3837201,27.6960516 C49.3837201,28.2492937 49.4550992,28.7713968 49.5957508,29.2466746 C49.7373386,29.7254643 49.9580284,30.1473611 50.2524374,30.5006588 C50.5470805,30.8541905 50.9203574,31.1356111 51.3610348,31.3364921 C51.8021803,31.5371389 52.3221936,31.6392182 52.9070332,31.6392182 C53.4918727,31.6392182 54.0116521,31.5371389 54.4527976,31.3364921 C54.893709,31.1356111 55.2665179,30.8541905 55.561395,30.5006588 C55.8551019,30.1482977 56.0757917,29.7264008 56.2180816,29.2466746 C56.3587333,28.7704603 56.4301122,28.2485912 56.4301122,27.6960516 C56.4301122,27.1435119 56.3587333,26.621877 56.2180816,26.1451944 M54.7750562,27.6960516 C54.7750562,28.5323532 54.6191925,29.1923571 54.3121459,29.6575674 C54.0076736,30.1192659 53.5482739,30.3435595 52.9070332,30.3435595 C52.2657926,30.3435595 51.808499,30.1195 51.5091755,29.6580357 C51.2068094,29.1925912 51.0530521,28.5323532 51.0530521,27.6960516 C51.0530521,26.8602182 51.2065753,26.2023214 51.5089414,25.7415595 C51.808499,25.2847778 52.2657926,25.0630595 52.9070332,25.0630595 C53.5482739,25.0630595 54.0076736,25.2850119 54.31238,25.7420278 C54.6194265,26.2025556 54.7750562,26.8602182 54.7750562,27.6960516" fill="#FFFFFF"></path>
                            <path d="M68.0639492,30.1199682 C68.0164413,29.9797262 67.8800021,30.0326389 67.8800021,30.0326389 C67.6698437,30.1129444 67.4470476,30.1871627 67.2090398,30.2243889 C66.9684575,30.2620833 66.7028341,30.2810477 66.4182543,30.2810477 C65.7206126,30.2810477 65.1652607,30.0729088 64.7685808,29.6627182 C64.3704968,29.2518254 64.1462966,28.5878412 64.1486369,27.6897301 C64.1512112,26.8728611 64.3487321,26.2582778 64.7025845,25.7890873 C65.0540967,25.3231746 65.5897901,25.0845992 66.3028778,25.0845992 C66.8980146,25.0845992 67.3522658,25.1534326 67.8280476,25.3025714 C67.8280476,25.3025714 67.9410838,25.3522063 67.9951446,25.2028333 C68.1217545,24.8523452 68.2153663,24.6022977 68.3501672,24.2169246 C68.3885481,24.107119 68.2944683,24.0602937 68.2602999,24.0467143 C68.0733104,23.9741349 67.6314629,23.8547301 67.297971,23.8039246 C66.9860097,23.756631 66.6218599,23.7313452 66.2158188,23.7313452 C65.6099166,23.7313452 65.0693086,23.8352977 64.6075686,24.0408611 C64.1467646,24.2464246 63.7557015,24.5299523 63.4460806,24.8830159 C63.1362256,25.2360793 62.9003239,25.6577421 62.7439922,26.1365318 C62.5876606,26.6129801 62.5087927,27.1357857 62.5087927,27.6899643 C62.5087927,28.8875238 62.8317533,29.8542341 63.4683134,30.5627023 C64.1074477,31.273746 65.0657982,31.6347699 66.3169195,31.6347699 C67.0557505,31.6347699 67.8140058,31.4851627 68.3597625,31.2702341 C68.3597625,31.2702341 68.4639056,31.2203651 68.4185038,31.0988532 L68.0639492,30.1199682" fill="#FFFFFF"></path>
                            <path d="M75.4445354,25.8731389 C75.322138,25.4102699 75.0188359,24.9434207 74.8201448,24.7294286 C74.5056093,24.3911151 74.1983287,24.1539444 73.8926862,24.0228333 C73.4946022,23.8516865 73.0167141,23.7388373 72.4943604,23.7388373 C71.8844797,23.7388373 71.3310001,23.841619 70.8816636,24.0520992 C70.432093,24.2632818 70.0541355,24.5521944 69.7573862,24.9104088 C69.4608709,25.2688571 69.2383089,25.6954365 69.096019,26.1791429 C68.9539632,26.6600397 68.8818821,27.1847182 68.8818821,27.7379603 C68.8818821,28.3012699 68.9563034,28.8264167 69.1035079,29.2979484 C69.2516486,29.7741627 69.4898905,30.1920793 69.810979,30.5395238 C70.1320673,30.8886071 70.5451293,31.1625357 71.0391654,31.3533492 C71.5303932,31.5434603 72.1269342,31.6422619 72.8114703,31.6403889 C74.2221996,31.6359405 74.964541,31.3208056 75.2711196,31.1515318 C75.3251804,31.1215635 75.3764328,31.0688849 75.3125428,30.9181071 L74.9928586,30.0235079 C74.9439464,29.8900556 74.8091454,29.938754 74.8091454,29.938754 C74.4592715,30.0691627 73.9633631,30.3023532 72.8042154,30.3000119 C72.0473642,30.2986071 71.4861616,30.0747818 71.1334792,29.724996 C70.7730739,29.3677182 70.5959137,28.8421032 70.5657238,28.1001548 L75.4482799,28.1041349 C75.4482799,28.1041349 75.576762,28.1027301 75.5901017,27.977004 C75.5957184,27.9250278 75.7581348,26.9733016 75.4445354,25.8731389 Z M70.5879567,26.8944008 C70.6569954,26.4291905 70.7845414,26.0431151 70.9825303,25.7415595 C71.282088,25.2847778 71.7375092,25.0328571 72.3787499,25.0328571 C73.0199905,25.0328571 73.4426476,25.2850119 73.7473539,25.7420278 C73.9483852,26.0435833 74.0363803,26.4460477 74.0710166,26.894869 L70.5879567,26.8944008 Z" fill="#FFFFFF"></path>
                            <path d="M36.3354093,25.8731389 C36.2127778,25.4102699 35.9097098,24.9434207 35.7110187,24.7294286 C35.3964832,24.3911151 35.0892025,24.1539444 34.7835601,24.0228333 C34.3854761,23.8516865 33.907588,23.7388373 33.3850003,23.7388373 C32.7755876,23.7388373 32.221874,23.841619 31.7725375,24.0520992 C31.322967,24.2632818 30.9450094,24.5521944 30.6482601,24.9104088 C30.3515108,25.2688571 30.1291829,25.6954365 29.986893,26.1791429 C29.8448371,26.6600397 29.772756,27.1847182 29.772756,27.7379603 C29.772756,28.3012699 29.8471774,28.8264167 29.9943819,29.2979484 C30.1427565,29.7741627 30.3807645,30.1920793 30.7018529,30.5395238 C31.0229412,30.8886071 31.4360032,31.1625357 31.9300393,31.3533492 C32.4215011,31.5434603 33.0178081,31.6422619 33.7025782,31.6403889 C35.1133076,31.6359405 35.8554149,31.3208056 36.1619935,31.1515318 C36.2160543,31.1215635 36.2673067,31.0688849 36.2031827,30.9181071 L35.8839665,30.0235079 C35.8350544,29.8900556 35.7000194,29.938754 35.7000194,29.938754 C35.3501454,30.0691627 34.8544711,30.3023532 33.6948552,30.3000119 C32.9384721,30.2986071 32.3770355,30.0747818 32.0245872,29.724996 C31.6641818,29.3677182 31.4867875,28.8421032 31.4568318,28.1001548 L36.3391537,28.1041349 C36.3391537,28.1041349 36.4678699,28.1027301 36.4809756,27.977004 C36.4865923,27.9250278 36.6490087,26.9733016 36.3354093,25.8731389 Z M31.4788305,26.8944008 C31.5478692,26.4291905 31.6754153,26.0431151 31.8731701,25.7415595 C32.1729619,25.2847778 32.6283831,25.0328571 33.2696238,25.0328571 C33.9108644,25.0328571 34.3335216,25.2850119 34.6384619,25.7420278 C34.8392592,26.0435833 34.9272542,26.4460477 34.9618905,26.894869 L31.4788305,26.8944008 Z" fill="#FFFFFF"></path>
                            <path d="M22.8667815,26.6602738 C22.6683246,26.6457579 22.4118283,26.6382659 22.1043137,26.6382659 C21.6863371,26.6382659 21.2814662,26.6902421 20.9018704,26.7925556 C20.5204025,26.8953373 20.1773154,27.0547778 19.8822042,27.2657262 C19.5854549,27.4787818 19.346979,27.7494326 19.1740312,28.0713571 C19.0006154,28.3935159 18.9126203,28.7725674 18.9126203,29.1972738 C18.9126203,29.6301746 18.9879778,30.0057143 19.1365865,30.3126548 C19.2856633,30.621 19.5000342,30.8783056 19.7733806,31.0770793 C20.0448547,31.2749167 20.3795168,31.4198412 20.7680057,31.5081071 C21.1513458,31.5956707 21.5864066,31.6403889 22.0610183,31.6403889 C22.5623093,31.6403889 23.0612601,31.5984801 23.5442968,31.5165357 C24.0238231,31.4350595 24.6112369,31.3154207 24.7741214,31.2777262 C24.9370059,31.2402659 25.1165065,31.1910992 25.1165065,31.1910992 C25.2374997,31.1604286 25.2279045,31.0309563 25.2279045,31.0309563 L25.2255642,26.5635793 C25.2255642,25.5832897 24.9643874,24.8577301 24.4495226,24.4068016 C23.9369982,23.9584484 23.1827213,23.7313452 22.2068185,23.7313452 C21.8398604,23.7313452 21.2512764,23.7809801 20.8976579,23.8519207 C20.8976579,23.8519207 19.8318879,24.0584207 19.3923806,24.4028214 C19.3923806,24.4028214 19.2961945,24.4622897 19.3488512,24.5971468 L19.6945127,25.5261627 C19.7375741,25.646504 19.8545888,25.6052977 19.8545888,25.6052977 C19.8545888,25.6052977 19.8915655,25.5907818 19.9348609,25.5650278 C20.874255,25.0543968 22.0626564,25.0696151 22.0626564,25.0696151 C22.5903928,25.0696151 22.9964339,25.1759088 23.2693122,25.3852182 C23.5361058,25.5898452 23.6713748,25.8979563 23.6713748,26.5490635 L23.6713748,26.7557977 C23.252228,26.6951588 22.8667815,26.6602738 22.8667815,26.6602738 Z M20.9234012,30.0932778 C20.7321991,29.940627 20.7057538,29.9026984 20.6418638,29.8036627 C20.5449756,29.6538214 20.4955954,29.4405318 20.4955954,29.1682421 C20.4955954,28.7390873 20.6378853,28.4300397 20.9313582,28.222369 C20.9285498,28.2233056 21.3526111,27.8566627 22.3477043,27.8695397 C23.0474523,27.8786707 23.673715,27.9823889 23.673715,27.9823889 L23.673715,30.2033174 L23.673949,30.2033174 C23.673949,30.2033174 23.0533031,30.3365357 22.3549592,30.3786786 C21.3615042,30.4386151 20.9205928,30.0923412 20.9234012,30.0932778 Z" fill="#FFFFFF"></path>
                            <path d="M62.2532325,24.1434088 C62.2906773,24.0329008 62.2120433,23.979754 62.1802154,23.9675793 C62.0969008,23.9357381 61.6817327,23.8479405 61.3615804,23.8280397 C60.7479552,23.7905793 60.4074424,23.8935952 60.1022681,24.0310278 C59.799668,24.1675238 59.4640698,24.3880714 59.2773143,24.6397579 L59.2768463,24.044373 C59.2768463,23.9626627 59.2185729,23.8964048 59.1366626,23.8964048 L57.8848392,23.8964048 C57.8031629,23.8964048 57.7448896,23.9626627 57.7448896,24.044373 L57.7448896,31.3320437 C57.7448896,31.413754 57.8108859,31.4800119 57.8927962,31.4800119 L59.1759796,31.4800119 C59.2576558,31.4800119 59.3238862,31.413754 59.3238862,31.3320437 L59.3238862,27.6911349 C59.3238862,27.2022778 59.378181,26.7152937 59.4853665,26.4090556 C59.5913818,26.1058611 59.7350759,25.8640079 59.9134063,25.6902857 C60.0915027,25.5172659 60.2946402,25.395754 60.5165001,25.327623 C60.7437427,25.2580873 60.9946223,25.235377 61.1717826,25.235377 C61.4271087,25.235377 61.708178,25.3009326 61.708178,25.3009326 C61.8024918,25.3114682 61.8546805,25.253873 61.8862744,25.1688849 C61.970291,24.9457619 62.2078308,24.2761588 62.2532325,24.1434088" fill="#FFFFFF"></path>
                            <path d="M50.2107801,20.766127 C50.0549166,20.7178968 49.9133287,20.6858214 49.7279774,20.6514048 C49.5405199,20.6174563 49.3172558,20.5998968 49.0642699,20.5998968 C48.181511,20.5998968 47.4852734,20.8499444 46.9961519,21.3427818 C46.5107749,21.8323412 46.1805593,22.5778016 46.0151006,23.5585595 L45.955189,23.8891468 L44.8465916,23.8891468 C44.8465916,23.8891468 44.7113226,23.8842301 44.683005,24.031496 L44.5009301,25.0471389 C44.4882925,25.1445357 44.5297158,25.2051746 44.6603042,25.2047063 L45.7389458,25.2047063 L44.6441561,31.3189326 C44.5585013,31.8113016 44.460443,32.2163412 44.3518534,32.5230477 C44.2444339,32.8260079 44.1398227,33.0531111 44.0111065,33.2179365 C43.8863688,33.3771429 43.768184,33.4946746 43.5641104,33.5630397 C43.3958431,33.6196984 43.2020668,33.6456865 42.9895681,33.6456865 C42.8713832,33.6456865 42.7141154,33.6260199 42.5982709,33.6028412 C42.4821922,33.5798968 42.4218127,33.5539088 42.3345197,33.5171508 C42.3345197,33.5171508 42.2081438,33.4689207 42.1582955,33.5955833 C42.1175744,33.6993016 41.8301863,34.4908849 41.795784,34.5885159 C41.7616157,34.6852103 41.8100597,34.7617699 41.8711414,34.7833095 C42.0146014,34.8345833 42.1215529,34.8680635 42.3172015,34.9141865 C42.5889097,34.9781032 42.8180245,34.9820833 43.0326295,34.9820833 C43.4819659,34.9820833 43.8917515,34.9186349 44.2310942,34.7961865 C44.5730112,34.6725674 44.8704626,34.4576389 45.1335117,34.1663849 C45.4178574,33.8514841 45.5968899,33.5227699 45.7681995,33.0734801 C45.9376368,32.6281707 46.082033,32.0760992 46.1974095,31.43225 L47.2975818,25.2047063 L48.9060661,25.2047063 C48.9060661,25.2047063 49.0413351,25.209623 49.0696527,25.0623571 L49.2514935,24.0467143 C49.2643651,23.9493174 49.2227079,23.8886786 49.0921195,23.8891468 L47.5311432,23.8891468 C47.5391002,23.8537937 47.6097771,23.3047659 47.7890436,22.7873452 C47.8653372,22.5665635 48.0092653,22.388627 48.1314287,22.2661786 C48.2514858,22.1460714 48.3893291,22.060381 48.5402781,22.0116826 C48.6952056,21.9615793 48.8716638,21.9362937 49.0642699,21.9362937 C49.2114745,21.9362937 49.3561047,21.9533849 49.4653964,21.9767977 C49.6170475,22.008873 49.6760229,22.0259643 49.7153398,22.0379048 C49.8744798,22.086369 49.8957766,22.0393095 49.9271365,21.9625159 L50.3006475,20.9363373 C50.3390283,20.8265318 50.2449484,20.7794722 50.2107801,20.766127" fill="#FFFFFF"></path>
                            <path d="M28.3950247,31.3320437 C28.3950247,31.413754 28.3365174,31.4800119 28.2550752,31.4800119 L26.9599563,31.4800119 C26.87828,31.4800119 26.8200067,31.413754 26.8200067,31.3320437 L26.8200067,20.9054326 C26.8200067,20.8237222 26.87828,20.7576984 26.9599563,20.7576984 L28.2550752,20.7576984 C28.3365174,20.7576984 28.3950247,20.8237222 28.3950247,20.9054326 L28.3950247,31.3320437" fill="#FFFFFF"></path>
                            <path d="M156.986698,20.4082262 L152.231445,19.4567103 L146.918508,25.4693418 L146.918508,10.474373 L142.443643,12.2656841 L142.443643,30.9109951 C141.866718,28.0863543 139.043941,27.3170289 136.712874,26.6834871 C135.004089,26.2190731 133.528616,25.8179101 133.59081,24.6474219 C133.652317,23.4996215 134.79208,23.0455202 135.894045,23.1043024 C137.195993,23.1740848 138.253288,23.7117188 139.040848,24.7037978 L142.329907,21.7794678 C140.545871,19.7894659 137.65128,19.347396 136.062759,19.2624883 C132.406722,19.0668914 128.620799,20.6846058 128.403979,24.740236 C128.397451,24.8688006 128.394358,24.9932402 128.394702,25.1156172 C127.0876,21.7887492 123.851114,19.4329912 120.062443,19.4329912 C115.726397,19.4329912 112.113998,22.5181989 111.290703,26.6140484 L111.290703,10.4791856 L106.815838,12.270153 L106.815838,20.6347612 C105.49877,19.8716235 103.970038,19.4329912 102.338223,19.4329912 C97.3943262,19.4329912 93.3864295,23.4418706 93.3864295,28.3881718 C93.3864295,33.3341293 97.3943262,37.3433524 102.338223,37.3433524 C106.85604,37.3433524 110.590077,33.9941403 111.200332,29.6425365 C111.810245,33.9941403 115.544282,37.3433524 120.062443,37.3433524 C123.463863,37.3433524 126.421679,35.445477 127.936666,32.6503992 L123.092418,31.6810079 C122.29558,32.415614 121.232443,32.8655902 120.063129,32.8655902 C118.228583,32.8655902 116.652432,31.7607593 115.961428,30.1798267 L120.065535,30.1798267 L128.834526,30.1794829 C128.952042,29.6005983 129.013892,29.0017757 129.013892,28.3881718 C129.013892,28.0681352 128.996711,27.7518799 128.964068,27.440781 C129.989408,29.2190294 132.217048,29.8219769 134.111727,30.3348605 C135.88786,30.815431 137.421746,31.2303442 137.35268,32.5135843 C137.303887,33.4382873 136.266864,33.9367331 134.580071,33.8459815 C133.015947,33.7627927 131.79784,33.1031254 130.762879,31.7762283 L127.479662,35.0511891 C129.406641,37.1230049 132.474757,37.5843251 134.15296,37.6743892 C135.947992,37.7706407 141.60351,37.6991395 142.443643,33.1876893 L142.443643,37.3457587 L146.918508,37.3457587 L146.918508,29.5163781 L153.835428,37.3436962 L159.430814,37.3436962 L150.726766,27.4930318 L156.986698,20.4082262 Z M104.377219,32.3740195 C103.765246,32.6875247 103.073209,32.8655902 102.33891,32.8655902 C99.867305,32.8655902 97.8633567,30.8611505 97.8633567,28.3881718 C97.8633567,25.9155368 99.867305,23.9107533 102.33891,23.9107533 C104.810515,23.9107533 106.814119,25.9155368 106.814119,28.3881718 C106.814119,29.3720007 106.496277,30.2815783 105.958524,31.0203095 C106.038929,31.5531308 106.335467,32.1457657 107.120965,32.6699932 C107.501,32.9233412 106.012815,33.3286291 104.377219,32.3740195 Z M115.961428,26.5972044 C116.652089,25.0159281 118.228583,23.9107533 120.063129,23.9107533 C121.898021,23.9107533 123.474515,25.0159281 124.165176,26.5972044 L115.961428,26.5972044 Z" fill="#90989E"></path>
                        </g>
                    </g>
                </g>
            </g>
        </g>
    </g>
</svg>