<?xml version="1.0" encoding="UTF-8"?>
<svg width="822px" height="544px" viewBox="0 0 822 544" version="1.1" xmlns="http://www.w3.org/2000/svg" xmlns:xlink="http://www.w3.org/1999/xlink">
    <!-- Generator: Sketch 48.1 (47250) - http://www.bohemiancoding.com/sketch -->
    <title>team</title>
    <desc>Created with Sketch.</desc>
    <defs></defs>
    <g id="Page-1" stroke="none" stroke-width="1" fill="none" fill-rule="evenodd">
        <g id="team" fill-rule="nonzero">
            <polygon id="Fill-7" fill="#2F302E" points="393.832653 502.944272 403.496297 502.944272 403.496297 391.872657 393.832653 391.872657"></polygon>
            <path d="M470.801188,391.872657 C470.801188,395.440403 467.90903,398.334604 464.339723,398.334604 L331.769545,398.334604 C328.202277,398.334604 325.312158,395.440403 325.312158,391.872657 C325.312158,388.302869 328.202277,385.408668 331.769545,385.408668 L464.339723,385.408668 C467.90903,385.408668 470.801188,388.302869 470.801188,391.872657" id="Fill-8" fill="#2F302E"></path>
            <path d="M349.381525,343.226396 C349.381525,343.226396 339.897366,348.951526 336.328059,361.283519 C332.758752,373.615511 341.62899,400.547097 359.304198,401.737026 C389.828911,403.790317 393.12899,387.619119 414.034931,398.334604 C434.940871,409.05009 455.08196,401.686 458.102614,392.911549 C461.117149,384.139138 474.713149,346.798224 437.139564,344.099963 C395.562238,342.644698 349.381525,343.226396 349.381525,343.226396" id="Fill-9" fill="#155857"></path>
            <path d="M354.035901,207.807157 C354.035901,207.807157 358.539347,179.828515 374.17699,176.936354 C389.812594,174.046235 411.654713,179.997922 411.654713,179.997922 C411.654713,179.997922 428.104119,194.29544 433.392812,205.474243 C438.677426,216.653045 365.594337,227.878791 354.035901,207.807157" id="Fill-10" fill="#6A6A67"></path>
            <path d="M373.14903,127.018522 C373.14903,127.018522 389.004911,130.153567 393.834693,122.96909 C398.664475,115.782571 403.182198,119.405425 409.217386,127.234873 C415.250535,135.064321 425.446515,151.786601 426.660079,165.067679 C428.159188,172.74609 425.338416,177.803799 425.338416,177.803799 C425.338416,177.803799 423.127485,180.663302 418.660752,180.844955 C414.19198,181.026608 409.133762,187.757974 409.133762,198.793903 C409.133762,212.399507 402.40103,213.930291 402.40103,213.930291 C402.40103,213.930291 376.565366,222.861903 375.800515,199.898108 C375.345683,186.212903 376.85703,183.831004 375.435426,179.777489 C374.013822,175.723974 364.813168,175.61784 359.712119,168.125164 C354.611069,160.630448 339.872891,130.202552 373.14903,127.018522" id="Fill-11" fill="#F2B681"></path>
            <path d="M407.924277,111.11266 C407.924277,111.11266 410.643069,120.213679 407.924277,125.597955 C406.616891,128.190082 397.469267,135.860328 389.565802,135.605198 C381.664376,135.350067 375.545564,137.901373 375.545564,137.901373 L384.468832,137.901373 C384.468832,137.901373 387.018337,144.279638 388.038139,148.616858 C389.057941,152.954078 384.405604,153.337795 385.170455,156.909623 C385.935307,160.481451 390.779366,167.280172 390.779366,167.280172 L386.12703,169.792698 C386.12703,169.792698 380.846495,158.366929 377.075267,157.546429 C371.211406,156.270776 366.803822,162.473511 371.466356,167.367937 C376.693861,172.854265 378.258238,173.807433 375.882099,188.129444 C374.780713,182.804358 360.187347,178.109955 352.03505,162.904172 C343.882752,147.700429 348.763525,135.860328 355.398356,130.247455 C354.639624,121.317884 365.092594,114.429358 372.231208,115.19475 C379.369822,115.960142 385.743584,107.795963 385.743584,107.795963 C385.743584,107.795963 384.978733,112.388313 382.174277,114.174228 C385.233683,114.684489 387.783188,110.771806 387.783188,109.922731 C388.54804,111.963776 386.932673,114.259951 386.932673,114.259951 C386.932673,114.259951 392.710871,114.259951 394.326238,111.11266 C394.581188,112.0495 393.64705,114.174228 392.712911,114.770213 C395.262416,115.025343 397.726257,114.855937 399.765861,111.878052 C400.020812,113.580284 399.172337,115.535604 396.792119,116.641851 C401.464851,117.407243 403.759406,112.218907 404.014356,110.943254 C404.524257,112.729168 403.759406,116.63981 402.570317,118.342041 C405.205485,118.597172 407.414376,114.259951 407.924277,111.11266" id="Fill-12" fill="#6D3A27"></path>
            <path d="M446.768535,292.79422 C445.96901,293.192224 441.681762,293.680034 437.184436,294.098448 C436.686772,275.184086 436.025941,258.304646 436.025941,258.304646 C436.025941,258.304646 448.553188,291.89616 446.768535,292.79422 Z M348.021109,294.098448 C343.523782,293.680034 339.236535,293.192224 338.43905,292.79422 C336.650317,291.89616 349.177564,258.304646 349.177564,258.304646 C349.177564,258.304646 348.514693,275.184086 348.021109,294.098448 Z M465.563485,278.508948 C459.746535,257.508638 447.490554,212.562791 443.299168,210.380914 C439.099624,208.196996 430.87798,207.692858 422.150515,205.004802 C413.42305,202.316746 409.315287,195.289429 409.315287,195.289429 C407.039089,210.785041 399.800535,213.930291 392.600733,214.305843 C383.993604,213.546575 377.98697,209.907392 375.712812,194.41178 C375.712812,194.41178 371.782495,202.316746 363.05503,205.004802 C354.327564,207.692858 346.103881,208.196996 341.906376,210.380914 C337.710911,212.562791 325.45697,257.508638 319.64002,278.508948 C313.82103,299.509257 311.583584,304.438381 319.64002,308.020414 C324.94299,310.377821 338.771505,312.151489 347.609109,313.09241 C347.415347,325.279489 347.409228,336.213366 347.823267,341.791541 C376.035069,353.778597 411.442594,358.050504 437.384317,341.773172 C437.794277,336.186832 437.790198,325.265201 437.594396,313.09241 C446.43404,312.151489 460.260515,310.377821 465.563485,308.020414 C473.62196,304.438381 471.380436,299.509257 465.563485,278.508948 Z" id="Fill-13" fill="#95BA3E"></path>
            <path d="M446.768535,292.79422 C445.96901,293.192224 441.681762,293.680034 437.184436,294.098448 C436.686772,275.184086 436.025941,258.304646 436.025941,258.304646 C436.025941,258.304646 448.553188,291.89616 446.768535,292.79422 Z M465.563485,278.508948 C459.746535,257.508638 447.490554,212.562791 443.299168,210.380914 C439.099624,208.196996 432.109901,204.372078 423.382436,201.684022 C422.317762,201.357455 419.384812,199.232728 418.454752,198.793903 C407.736634,249.358746 412.164614,347.64934 420.494356,360.234422 C430.690337,354.452142 437.490376,346.628817 450.976238,347.528918 C453.872475,347.722817 437.845267,328.771716 437.594396,313.09241 C446.43404,312.151489 460.260515,310.377821 465.563485,308.020414 C473.62196,304.438381 471.380436,299.509257 465.563485,278.508948 Z" id="Fill-14" fill="#8B8C88"></path>
            <path d="M424.23295,198.793903 C423.168277,198.465295 419.384812,199.232728 418.454752,198.793903 C415.228099,214.018056 413.131386,229.854522 411.675109,245.931832 C416.727208,230.797485 424.551129,217.606213 433.511109,205.535474 C430.496574,204.188384 427.961347,199.94097 424.23295,198.793903" id="Fill-15" fill="#6A6A67"></path>
            <path d="M348.021109,294.098448 C343.523782,293.680034 339.236535,293.192224 338.43905,292.79422 C336.650317,291.89616 349.177564,258.304646 349.177564,258.304646 C349.177564,258.304646 348.514693,275.184086 348.021109,294.098448 Z M369.587881,197.473347 C367.79099,198.897996 363.842317,202.26572 361.174515,203.08622 C352.44705,205.776317 346.103881,208.196996 341.906376,210.380914 C337.710911,212.562791 325.45697,257.508638 319.64002,278.508948 C313.82103,299.509257 311.583584,304.438381 319.64002,308.020414 C324.94299,310.377821 338.771505,312.151489 347.609109,313.09241 C347.360277,328.771716 332.365109,348.584138 336.921584,359.077149 C336.921584,359.077149 339.679129,344.17344 375.196792,359.077149 C386.414614,331.004619 385.91899,248.48722 369.587881,197.473347 Z" id="Fill-16" fill="#8B8C88"></path>
            <path d="M369.587881,197.473347 C367.79099,198.897996 363.332416,197.973403 360.664614,198.793903 C358.412891,199.487858 356.834238,204.457802 354.894574,205.11706 C365.174178,215.477403 373.306079,226.911336 379.314752,239.406612 C377.073228,225.147873 373.950594,211.103444 369.587881,197.473347" id="Fill-17" fill="#6A6A67"></path>
            <path d="M395.609149,503.68109 C395.609149,503.68109 424.067743,452.238597 437.941129,430.293284 C451.816554,408.343888 463.452495,386.398575 463.005822,371.17034 C462.559149,355.942104 459.134653,352.92544 452.711941,351.019104 C446.291267,349.108687 432.124178,354.599097 425.858515,363.557243 C419.592851,372.513347 407.063564,411.927963 394.081485,449.550541 L377.970653,496.133306 C377.970653,496.133306 383.767208,503.68109 395.609149,503.68109" id="Fill-18" fill="#186165"></path>
            <path d="M380.879129,486.09953 C380.879129,486.09953 369.659267,506.171164 359.801861,512.973966 C349.944455,519.776769 339.915723,523.171026 335.326614,531.002515 C333.966198,536.303108 374.166792,534.858049 388.021822,527.693981 C394.301762,524.446679 397.599802,509.512354 400.593941,496.984422 C403.590119,484.454448 380.879129,486.09953 380.879129,486.09953" id="Fill-19" fill="#20211F"></path>
            <path d="M409.09297,483.674769 C409.09297,483.674769 388.921287,486.011765 385.478436,471.21419 C380.452851,475.957578 373.399901,485.079007 373.399901,485.079007 C373.399901,485.079007 382.578119,500.131713 404.46103,499.366321 C407.053366,494.263709 409.09297,483.674769 409.09297,483.674769" id="Fill-20" fill="#424240"></path>
            <path d="M402.704931,503.68109 C402.704931,503.68109 374.244297,452.238597 360.370911,430.293284 C346.493446,408.343888 334.859545,386.398575 335.308257,371.17034 C335.750851,355.942104 339.177386,352.92544 345.600099,351.019104 C352.022812,349.108687 366.187861,354.599097 372.455564,363.557243 C378.719188,372.513347 391.248475,411.927963 404.232594,449.550541 L420.343426,496.133306 C420.343426,496.133306 414.544832,503.68109 402.704931,503.68109" id="Fill-21" fill="#186E78"></path>
            <path d="M417.432911,486.09953 C417.432911,486.09953 428.652772,506.171164 438.510178,512.973966 C448.365545,519.776769 458.396317,523.171026 462.985426,531.002515 C464.343802,536.303108 424.145248,534.858049 410.290218,527.693981 C404.012317,524.446679 400.714277,509.512354 397.718099,496.984422 C394.72396,484.454448 417.432911,486.09953 417.432911,486.09953" id="Fill-22" fill="#2F302E"></path>
            <path d="M390.216436,481.362265 C390.216436,481.362265 409.003228,488.089549 412.44404,473.291974 C417.773525,473.291974 424.912139,485.079007 424.912139,485.079007 C424.912139,485.079007 415.733921,500.131713 393.85305,499.366321 C388.454218,491.459313 390.216436,481.362265 390.216436,481.362265" id="Fill-23" fill="#52524F"></path>
            <path d="M149.486059,486.579175 C149.486059,486.579175 145.949386,497.660007 151.558297,514.165937 C155.433545,520.523791 181.407901,529.828914 181.407901,529.828914 C181.407901,529.828914 185.78897,537.213414 159.045683,535.827545 C145.345663,535.119302 125.565584,509.891989 121.716851,502.501366 C117.868119,495.110743 123.193525,492.016519 128.045743,489.765246 C132.895921,487.518056 135.979802,482.899172 135.979802,482.899172 C135.979802,482.899172 147.605545,482.307269 149.486059,486.579175" id="Fill-24" fill="#713922"></path>
            <path d="M90.5700594,371.329541 C90.5700594,371.329541 96.9499406,363.216388 85.3180792,382.865526 C73.6862178,402.514664 197.622752,368.84559 200.229366,375.323866 C197.043505,385.188235 182.870297,374.791153 168.33404,414.71603 C154.52796,452.546795 133.454772,483.664563 133.454772,483.664563 L150.228475,497.147705 C150.228475,497.147705 179.30099,458.480112 206.707149,426.692881 C234.113307,394.903608 249.18802,367.178056 235.167782,356.313575 C235.167782,356.313575 236.883089,343.791765 112.469287,363.698075 C92.5811089,366.880063 90.5700594,371.329541 90.5700594,371.329541" id="Fill-25" fill="#4D4D4A"></path>
            <polygon id="Fill-26" fill="#2A2B29" points="202.723802 321.203522 295.907188 321.203522 295.907188 319.052261 202.723802 319.052261"></polygon>
            <path d="M325.381505,229.554489 C325.685406,228.566623 326.731723,228.011459 327.716851,228.315575 C328.70402,228.617649 329.260832,229.662664 328.956931,230.65053 L301.214238,321.230056 C300.910337,322.219963 299.868099,322.773086 298.876851,322.471011 C297.891723,322.166896 297.33695,321.123922 297.640851,320.134015 L325.381505,229.554489" id="Fill-27" fill="#848581"></path>
            <path d="M199.529782,320.413638 C199.495109,320.678974 199.464515,320.952474 199.464515,321.228015 C199.464515,323.887496 201.194099,326.046922 203.323446,326.046922 L294.018515,326.046922 C296.147861,326.046922 297.875406,323.887496 297.875406,321.228015 C297.875406,320.952474 297.844812,320.678974 297.810139,320.413638 L199.529782,320.413638" id="Fill-28" fill="#4A4A47"></path>
            <path d="M593.291644,487.226187 C593.291644,487.226187 590.232238,503.711705 569.836198,514.349631 C549.440158,524.985515 568.306495,530.088127 587.172832,527.02656 C606.039168,523.964993 608.719208,513.190317 614.707485,509.555216 C620.695762,505.922157 613.687683,495.957776 611.648079,489.295806 C609.608475,482.633836 593.291644,487.226187 593.291644,487.226187" id="Fill-29" fill="#20211F"></path>
            <path d="M517.112436,489.94894 C517.112436,489.94894 509.164099,504.707735 486.493901,508.593884 C463.823703,512.480034 480.228238,523.111836 499.127208,525.97134 C518.026178,528.828802 523.869644,519.384888 530.681921,517.758175 C537.492158,516.131463 533.863703,504.499549 533.957525,497.535504 C534.051347,490.567377 517.112436,489.94894 517.112436,489.94894" id="Fill-30" fill="#20211F"></path>
            <path d="M502.490515,244.15 C502.490515,244.15 499.906337,320.499362 503.208455,360.642631 C506.510574,400.781817 511.464772,459.829243 507.628277,496.029213 C526.10505,499.182627 536.86396,496.029213 536.86396,496.029213 C536.86396,496.029213 544.689921,426.61328 545.073366,393.299347 C545.458851,359.985414 554.877743,311.022791 556.917347,305.509929 C563.715347,328.571694 585.679842,468.148541 589.079861,491.998149 C607.436297,493.398306 613.555109,489.208041 613.555109,489.208041 C613.555109,489.208041 613.096198,417.791884 606.082,380.371369 C599.069842,342.950854 605.753624,261.990772 597.313743,231.375101 C562.35697,215.728451 502.490515,244.15 502.490515,244.15" id="Fill-31" fill="#AC8656"></path>
            <path d="M515.754059,82.0298134 C515.754059,82.0298134 502.853564,86.703806 495.382495,91.0042873 C487.911426,95.3047687 463.150634,158.58328 454.482317,171.109172 C445.814,183.635063 399.529267,239.157604 399.529267,239.157604 L399.529267,257.567828 C399.529267,257.567828 444.804396,224.513108 471.25602,193.758646 C484.095327,178.830444 501.529861,150.468086 501.529861,150.468086 C501.529861,150.468086 512.896574,200.930877 495.729228,257.229015 C551.477723,273.557373 602.057861,255.016522 602.057861,255.016522 C602.057861,255.016522 593.305921,213.840485 594.28901,135.856246 L606.208455,192.440131 L616.916376,263.70525 L635.152475,249.403649 C635.152475,249.403649 633.622772,188.462134 627.624297,165.094213 C609.267861,107.040776 593.405861,83.060541 580.939802,75.5760299 C568.475782,68.0915187 551.479762,65.509597 541.281743,66.7995373 C531.083723,68.0915187 515.754059,82.0298134 515.754059,82.0298134" id="Fill-32" fill="#FFECB3"></path>
            <path d="M491.690812,14.365097 C491.690812,14.365097 483.022495,28.0156045 474.492871,26.5582985 C465.961208,25.1030336 465.467624,30.8730672 466.968772,40.6476306 C468.474,50.420153 473.538337,69.3406381 482.310673,79.3805373 C486.832475,85.7628843 492.439347,87.2099851 492.439347,87.2099851 C492.439347,87.2099851 496.031089,87.5794142 499.245505,84.4668209 C502.457881,81.3562687 510.816178,82.3318881 518.801228,89.9449851 C528.648436,99.329709 537.881723,84.334153 537.881723,84.334153 C537.881723,84.334153 546.380752,70.387694 542.593208,66.5546119 C532.970356,56.8208694 530.239327,56.2371306 528.287426,52.4101716 C526.333485,48.5852537 532.603228,41.8477649 530.700277,32.9814664 C528.797327,24.1151679 516.945188,-7.54960075 491.690812,14.365097" id="Fill-33" fill="#F2B681"></path>
            <path d="M468.196614,34.2448731 C468.196614,34.2448731 475.641168,37.7187313 487.911426,34.0734254 C501.550257,30.0219515 503.606178,27.4400299 504.93804,34.0734254 C506.267861,40.7068209 508.307465,41.4722127 511.876772,42.7478657 C515.446079,44.0235187 517.485683,51.6774366 517.485683,51.6774366 L520.80004,48.3607388 C520.80004,48.3607388 518.250535,44.2786493 518.760436,38.6657761 C519.270337,33.052903 524.807861,32.5548881 527.428752,37.6452537 C530.049644,42.7356194 524.30204,49.9221381 530.802257,55.6860485 C533.037663,45.2991716 535.842119,24.1233321 521.05499,10.6014104 C506.267861,-2.92051119 472.869347,11.1116716 469.30004,20.0412425 C465.730733,28.9708134 468.951267,32.6304067 468.196614,34.2448731" id="Fill-34" fill="#8B8C88"></path>
            <path d="M467.131941,42.1743321 C467.131941,42.1743321 479.498059,35.0939478 501.168851,33.7346119 C520.930574,32.4936567 532.601188,38.4963694 532.601188,38.4963694 C532.601188,38.4963694 535.432158,16.5694254 523.229208,6.78261567 C511.028297,-3.00419403 484.85202,-1.46116418 473.634198,6.78261567 C462.416376,15.0243545 463.011941,28.0360149 467.131941,42.1743321" id="Fill-35" fill="#1A237E"></path>
            <path d="M504.93804,33.5815336 C504.93804,33.5815336 482.437129,28.2054216 466.307941,29.225944 C450.178752,30.2464664 433.35202,42.0151306 443.55004,49.9078507 C453.748059,57.8005709 470.515644,55.6860485 470.515644,55.6860485 C470.515644,55.6860485 468.025287,45.8094328 468.151743,43.8969739 C475.928752,37.3901231 499.524931,33.5060149 504.93804,33.5815336" id="Fill-36" fill="#304FFE"></path>
            <path d="M458.061822,316.096828 C458.061822,318.09297 456.444416,319.711519 454.449683,319.711519 L333.213584,319.711519 C331.218851,319.711519 329.601446,318.09297 329.601446,316.096828 L329.601446,237.794187 C329.601446,235.798045 331.218851,234.179496 333.213584,234.179496 L454.449683,234.179496 C456.444416,234.179496 458.061822,235.798045 458.061822,237.794187 L458.061822,316.096828" id="Fill-37" fill="#D8D8D2"></path>
            <path d="M458.102614,325.289694 C458.102614,325.708108 457.380594,326.046922 456.489287,326.046922 L331.214772,326.046922 C330.321426,326.046922 329.601446,325.708108 329.601446,325.289694 L329.601446,320.472828 C329.601446,320.050332 330.321426,319.711519 331.214772,319.711519 L456.489287,319.711519 C457.380594,319.711519 458.102614,320.050332 458.102614,320.472828 L458.102614,325.289694" id="Fill-38" fill="#4A4A47"></path>
            <path d="M656.421465,467.568884 C656.421465,467.568884 661.657129,477.588373 659.030119,494.335146 C656.378634,501.074675 629.533366,516.019205 629.533366,516.019205 C629.533366,516.019205 629.535406,521.740254 655.409822,518.823601 C672.36505,516.911142 683.215743,485.905631 685.673465,478.186399 C688.127109,470.465127 682.51004,468.387343 677.490574,467.044336 C672.46703,465.699287 668.742713,461.788646 668.742713,461.788646 C668.742713,461.788646 657.508574,463.160228 656.421465,467.568884" id="Fill-39" fill="#E05556"></path>
            <path d="M697.672455,342.714093 C697.672455,342.714093 690.207505,336.005179 704.623426,352.88666 C719.035267,369.768142 594.719366,358.187254 593.301842,364.826772 C597.99497,373.744097 609.84099,361.424351 630.412436,397.238563 C649.935525,431.168892 675.442812,464.327705 675.442812,464.327705 L657.900178,477.255683 C657.900178,477.255683 627.193941,440.990399 595.647386,415.10791 C564.104911,389.233586 545.048891,365.185996 556.668515,352.443754 C556.668515,352.443754 552.940119,340.738362 675.424455,339.0545 C695.002614,338.785082 697.672455,342.714093 697.672455,342.714093" id="Fill-40" fill="#1E2246"></path>
            <path d="M681.000733,521.115694 C681.000733,521.115694 612.164099,529.471731 610.379446,529.726862 C608.594792,529.981993 608.084891,523.730272 616.243307,521.115694 C624.401723,518.501116 674.278198,509.571545 674.278198,509.571545 L681.000733,521.115694" id="Fill-41" fill="#2F302E"></path>
            <path d="M681.000733,521.115694 C681.000733,521.115694 749.837366,529.471731 751.62202,529.726862 C753.406673,529.981993 753.916574,523.730272 745.758158,521.115694 C737.599743,518.501116 687.723267,509.571545 687.723267,509.571545 L681.000733,521.115694" id="Fill-42" fill="#2F302E"></path>
            <polygon id="Fill-43" fill="#4D4D4A" points="672.077465 522.199489 689.924 522.199489 689.924 415.046679 672.077465 415.046679"></polygon>
            <polygon id="Fill-44" fill="#2F302E" points="667.488356 418.234791 694.513109 418.234791 694.513109 399.865388 667.488356 399.865388"></polygon>
            <polyline id="Fill-45" fill="#2F302E" points="605.472158 405.480302 753.83295 405.225172 798.086238 225.998989 790.182772 223.962026 746.068178 395.407746 605.778099 395.650631 605.472158 405.480302"></polyline>
            <path d="M789.644317,225.998989 C789.644317,225.998989 767.938851,220.508578 763.859644,255.46147 C759.780436,290.414362 749.072515,357.172854 740.575525,367.718933 C732.078535,378.265011 743.065881,392.480888 746.068178,395.407746 C752.474574,370.517205 789.644317,225.998989 789.644317,225.998989" id="Fill-46" fill="#187085"></path>
            <path d="M609.514653,395.650631 L746.068178,395.650631 C746.068178,395.650631 744.591505,380.134608 729.867604,380.134608 C715.143703,380.134608 681.765584,390.852134 667.83101,388.470235 C653.892356,386.088336 607.968634,372.55825 609.514653,395.650631" id="Fill-47" fill="#187085"></path>
            <path d="M525.07505,502.964683 C525.07505,502.964683 507.585446,516.088601 474.562218,520.921795 C457.596792,522.675052 455.190059,523.964993 455.190059,523.964993 C455.190059,523.964993 452.063347,531.661772 465.045426,532.47819 C478.027505,533.290526 517.457129,534.541687 525.540079,534.096739 C533.627109,533.653832 533.57204,527.665407 533.045822,522.489317 C532.515525,517.313228 534.846792,512.439213 534.846792,512.439213 C534.846792,512.439213 529.576455,502.419724 525.07505,502.964683" id="Fill-48" fill="#E05556"></path>
            <path d="M736.108792,341.107791 C736.108792,341.107791 749.04804,359.965004 735.978257,377.91191 C722.908475,395.850653 613.510238,399.45922 606.726515,399.616381 C599.145307,406.253858 613.90796,427.276619 583.860515,455.606321 C555.397842,482.472593 535.717703,513.261754 535.717703,513.261754 L517.24297,503.444328 C517.24297,503.444328 540.547485,450.258784 558.389941,413.552634 C576.236475,376.848526 586.481406,356.317657 603.977129,355.999254 L683.921446,339.105526 C702.722515,333.629403 736.108792,341.107791 736.108792,341.107791" id="Fill-49" fill="#283364"></path>
            <path d="M739.845347,341.205761 L740.120693,351.339549 C740.120693,351.339549 714.172851,333.511022 680.666238,335.278567 C682.467208,331.225052 683.584911,327.300123 683.584911,327.300123 L739.845347,341.205761" id="Fill-50" fill="#91928E"></path>
            <path d="M662.923723,137.580929 C662.923723,137.580929 657.975644,155.621724 661.332832,160.838634 C658.142891,168.33131 655.175267,172.497082 655.175267,172.497082 L662.046693,176.134224 C662.046693,176.134224 664.792,181.794041 663.982277,184.043272 C663.174594,186.292504 662.348554,189.298963 666.217683,192.111522 C670.084772,194.92 686.154812,192.717713 686.154812,192.717713 C686.154812,192.717713 688.688,203.206642 689.799584,209.715534 C690.90301,216.185646 711.749802,210.266616 711.749802,210.266616 L709.077921,188.398862 C709.077921,188.398862 721.892752,163.42872 722.529109,148.467862 C723.175663,133.509045 710.487287,119.907522 695.830693,119.423795 C681.180218,118.938026 665.059188,127.316515 662.923723,137.580929" id="Fill-51" fill="#F2B681"></path>
            <path d="M673.982455,183.637104 C673.982455,183.637104 671.59204,176.407724 669.368871,175.103496 C667.141624,173.797228 663.062416,176.236276 660.892277,175.30556 C658.720099,174.374843 660.894317,178.789623 662.250653,179.457045 C664.22499,178.597765 666.49303,177.895646 668.977267,178.956989 C671.459465,180.016291 672.36097,184.551493 671.781723,185.643451 C671.208594,186.733369 669.305644,188.896877 666.927465,187.639593 C664.545208,186.380269 663.847663,185.341377 663.982277,184.043272 C662.485208,184.527 661.473564,187.16403 662.436257,191.097123 C663.396911,195.034299 668.75495,195.205746 668.75495,195.205746 L681.641168,193.20144 C681.641168,193.20144 674.092594,189.911276 673.982455,183.637104" id="Fill-52" fill="#373835"></path>
            <path d="M662.177228,158.23222 C662.177228,158.23222 661.532713,154.339948 663.103208,152.968366 C664.667584,151.598825 673.945743,158.032198 677.372277,157.307627 C671.851069,159.122116 663.025703,155.625806 662.177228,158.23222" id="Fill-53" fill="#373835"></path>
            <path d="M710.440376,199.238851 C710.440376,199.238851 698.826871,216.718358 690.701089,209.944131 C687.843604,214.699765 674.396495,238.549373 672.006079,249.91391 C669.615663,261.280489 667.588297,277.247582 670.806792,292.200276 C674.025287,307.15297 667.245644,327.308287 663.288812,339.040213 C682.100079,338.999392 738.829624,350.349642 746.147723,358.875086 C745.611307,341.20372 745.758158,323.891578 747.510178,311.251388 C750.543069,289.402004 753.000792,219.112504 710.440376,199.238851" id="Fill-54" fill="#FBDF66"></path>
            <path d="M735.101228,305.638515 C735.101228,305.638515 724.717604,253.689843 718.358119,240.900657 C712.000673,228.115552 714.123901,220.196299 725.751683,221.784231 C737.387624,223.370123 741.821723,236.326675 741.821723,236.326675 C741.821723,236.326675 756.582337,298.925519 753.031386,317.458205 C749.490634,335.992933 716.559188,325.452978 699.579485,325.28153 C682.497802,325.108041 652.325941,325.28153 652.325941,325.28153 L643.310891,314.090481 C651.61004,308.840914 735.101228,305.638515 735.101228,305.638515" id="Fill-55" fill="#F2B681"></path>
            <path d="M722.845248,213.173063 C711.211347,211.587172 707.460515,227.409351 713.81796,240.194455 C716.502079,245.599142 719.716495,257.171866 722.537267,268.740507 C730.432574,263.925683 739.531248,261.178437 748.868554,259.866045 C745.694931,244.511265 742.631446,232.277243 742.631446,232.277243 C742.631446,232.277243 734.477109,214.758955 722.845248,213.173063" id="Fill-56" fill="#FDED9C"></path>
            <path d="M664.114851,133.898884 C664.114851,133.898884 681.192455,135.378642 689.350871,138.101396 C697.509287,140.822108 692.067624,147.286097 691.047822,148.306619 C690.02802,149.327142 688.331069,154.89103 691.390475,158.23222 C694.449881,161.57341 693.768653,166.071873 693.768653,166.071873 L697.166634,166.071873 C697.166634,166.071873 697.676535,155.450276 703.966673,157.150466 C710.256812,158.852698 706.834356,165.486093 706.846594,170.078444 C706.854752,174.670795 706.985287,186.48028 708.87396,188.398862 C712.806317,182.494119 723.510158,159.701772 723.342911,145.245052 C723.171584,130.788332 710.085485,119.391138 695.979584,118.370616 C681.869604,117.350093 666.405327,126.538877 664.114851,133.898884" id="Fill-57" fill="#8B8C88"></path>
            <path d="M609.408594,252.691772 C609.408594,252.691772 601.927327,246.056336 597.901149,239.373955 C593.87701,232.685451 592.033208,229.454478 592.033208,229.454478 C592.033208,229.454478 579.09396,223.174183 576.018238,221.876078 C572.932317,220.573892 556.419683,224.049791 551.379822,223.766086 C550.074475,226.564358 557.72503,226.717437 561.622713,226.48884 C565.522436,226.270448 570.776455,226.466388 570.776455,226.466388 L562.497703,229.450396 C562.497703,229.450396 558.659168,236.187884 557.690356,236.930825 C558.430733,238.316694 560.637584,238.410582 563.964178,233.007937 C567.223465,231.234269 574.639465,232.138451 574.639465,232.138451 C574.639465,232.138451 568.247347,233.712097 566.827782,234.389724 C565.414337,235.071433 561.677782,239.608675 561.677782,239.608675 C561.677782,239.608675 561.506455,242.696776 568.092337,237.25331 C571.851327,234.142757 574.09897,236.792034 579.399901,242.25591 C584.70695,247.715705 587.236059,247.070735 587.236059,247.070735 L602.17004,263.95834 L610.214238,252.983642" id="Fill-58" fill="#F2B681"></path>
            <path d="M693.727861,317.915399 C693.727861,319.542112 692.410277,320.862668 690.784713,320.862668 L592.043406,320.862668 C590.417842,320.862668 589.098218,319.542112 589.098218,317.915399 L589.098218,254.142955 C589.098218,252.516243 590.417842,251.20181 592.043406,251.20181 L690.784713,251.20181 C692.410277,251.20181 693.727861,252.516243 693.727861,254.142955 L693.727861,317.915399" id="Fill-59" fill="#D8D8D2"></path>
            <path d="M693.760495,325.403993 C693.760495,325.744847 693.175129,326.020388 692.44495,326.020388 L590.413762,326.020388 C589.687663,326.020388 589.098218,325.744847 589.098218,325.403993 L589.098218,321.481104 C589.098218,321.136168 589.687663,320.862668 590.413762,320.862668 L692.44495,320.862668 C693.175129,320.862668 693.760495,321.136168 693.760495,321.481104 L693.760495,325.403993" id="Fill-60" fill="#4A4A47"></path>
            <polygon id="Fill-61" fill="#C7713B" points="238.890059 534.525358 251.798713 534.525358 251.798713 336.423593 238.890059 336.423593"></polygon>
            <path d="M260.925941,534.525358 C260.925941,535.335653 260.269188,535.992869 259.459465,535.992869 L231.231347,535.992869 C230.423663,535.992869 229.766911,535.335653 229.766911,534.525358 C229.766911,533.715063 230.423663,533.057847 231.231347,533.057847 L259.459465,533.057847 C260.269188,533.057847 260.925941,533.715063 260.925941,534.525358" id="Fill-62" fill="#C7713B"></path>
            <path d="M117.468356,534.888664 C117.468356,534.888664 186.30499,543.244701 188.089644,543.499832 C189.874297,543.754963 190.384198,537.503243 182.225782,534.888664 C174.067366,532.274086 124.190891,523.344515 124.190891,523.344515 L117.468356,534.888664" id="Fill-63" fill="#2F302E"></path>
            <path d="M117.468356,534.888664 C117.468356,534.888664 48.6317228,543.244701 46.8470693,543.499832 C45.0624158,543.754963 44.5525149,537.503243 52.7109307,534.888664 C60.8693465,532.274086 110.745822,523.344515 110.745822,523.344515 L117.468356,534.888664" id="Fill-64" fill="#2F302E"></path>
            <polygon id="Fill-65" fill="#4D4D4A" points="108.545089 536.152071 126.391624 536.152071 126.391624 428.999261 108.545089 428.999261"></polygon>
            <polygon id="Fill-66" fill="#2F302E" points="103.95598 452.932552 130.980733 452.932552 130.980733 434.563149 103.95598 434.563149"></polygon>
            <polyline id="Fill-67" fill="#2F302E" points="192.99897 440.178063 44.6381782 439.922933 0.38489109 260.69675 8.28631683 258.659787 52.4009109 430.105507 192.69303 430.348392 192.99897 440.178063"></polyline>
            <path d="M8.82477228,260.69675 C8.82477228,260.69675 30.5302376,255.20634 34.6094455,290.159231 C38.6886535,325.112123 49.3986139,391.870616 57.895604,402.416694 C66.3946337,412.962772 55.4032079,427.178649 52.4009109,430.105507 C45.9985941,405.214966 8.82477228,260.69675 8.82477228,260.69675" id="Fill-68" fill="#187085"></path>
            <path d="M188.956475,430.348392 L52.4009109,430.348392 C52.4009109,430.348392 53.8796238,414.832369 68.6035248,414.832369 C83.3274257,414.832369 116.705545,425.549896 130.642158,423.167996 C144.578772,420.786097 190.504535,407.256011 188.956475,430.348392" id="Fill-69" fill="#187085"></path>
            <path d="M222.14695,298.990832 C222.14695,298.990832 231.749406,296.063974 238.21699,291.647153 C244.684574,287.22625 247.713386,285.048455 247.713386,285.048455 C247.713386,285.048455 262.145624,284.728011 265.498733,284.832104 C268.855921,284.934157 282.476396,295.012836 287.19604,296.859981 C287.222554,299.960328 280.167564,296.89672 276.704317,295.065903 C273.241069,293.233045 268.358257,291.21241 268.358257,291.21241 L274.672871,297.402899 C274.672871,297.402899 275.362257,305.152746 275.933347,306.2345 C274.67899,307.189709 272.627149,306.352881 271.84598,300.031765 C269.612614,297.053881 262.465842,294.774034 262.465842,294.774034 C262.465842,294.774034 267.646436,298.882657 268.654,300.097078 C269.663604,301.3115 271.17495,307.010097 271.17495,307.010097 C271.17495,307.010097 270.04501,309.904299 266.308455,302.178944 C264.17503,297.770287 261.017723,299.248004 253.897465,302.013619 C246.773129,304.781276 244.729446,303.132112 244.729446,303.132112 L224.049901,312.300485 L221.292356,298.919396" id="Fill-70" fill="#DB9F71"></path>
            <path d="M309.980455,501.056306 C309.980455,501.056306 328.695861,515.943687 364.656119,522.250515 C383.157366,524.689563 385.743584,526.175444 385.743584,526.175444 C385.743584,526.175444 388.931485,534.686601 374.709327,535.178493 C360.489208,535.668343 317.335267,535.821422 308.507861,535.086646 C299.682495,534.349828 299.927248,527.800116 300.661505,522.158668 C301.399842,516.515179 299.001267,511.114575 299.001267,511.114575 C299.001267,511.114575 305.075208,500.319489 309.980455,501.056306" id="Fill-71" fill="#713922"></path>
            <path d="M51.303604,375.43 C51.303604,375.43 40.514099,398.001914 57.6794059,415.181388 C74.8426733,432.354739 193.678158,417.702078 201.03501,416.722377 C210.349881,422.610791 195.911525,434.481507 233.179168,459.998649 C268.488792,484.209522 294.966931,514.143485 294.966931,514.143485 L313.276455,500.401131 C313.276455,500.401131 281.128218,460.231328 255.629089,423.592534 C230.12996,386.951698 215.581465,366.50247 196.621307,369.121131 L107.366198,364.416522 C86.1196436,361.689687 51.303604,375.43 51.303604,375.43" id="Fill-72" fill="#5F605C"></path>
            <path d="M49.3965743,371.545892 L49.0865545,383.071672 C49.0865545,383.071672 78.5996238,362.791851 116.709624,364.800239 C114.663901,360.19156 113.389149,355.727795 113.389149,355.727795 L49.3965743,371.545892" id="Fill-73" fill="#91928E"></path>
            <path d="M227.09503,296.219093 C197.398396,297.727425 140.668851,303.766877 140.668851,303.766877 C140.668851,303.766877 107.525287,256.141138 102.087703,240.833302 C96.6480792,225.525466 80.7412079,216.106045 72.8520198,226.886843 C64.9648713,237.667642 72.8520198,258.182183 72.8520198,258.182183 C72.8520198,258.182183 111.094594,315.16203 129.053307,326.898037 C147.007941,338.634045 161.574792,328.939082 186.559941,323.326209 C202.917564,319.652328 219.362891,315.870272 229.766911,313.470004 C229.766911,310.569679 227.001208,297.425351 227.09503,296.219093" id="Fill-74" fill="#D2626A"></path>
            <path d="M153.65705,149.26591 C153.65705,149.26591 154.489208,170.525433 149.424871,175.44231 C151.032079,184.563739 153.24505,189.945974 153.24505,189.945974 L144.699109,192.199287 C144.699109,192.199287 140.199743,197.763175 140.515881,200.463478 C140.82998,203.167862 140.966634,206.709075 135.959406,208.825638 C130.954218,210.942201 113.715485,204.35575 113.715485,204.35575 C113.715485,204.35575 108.206515,215.322284 105.300079,222.243466 C102.40996,229.12791 80.8411485,217.191881 80.8411485,217.191881 L89.434,193.654552 C89.434,193.654552 81.6712673,162.687821 84.814297,145.949213 C87.9552871,129.210604 105.520356,117.415407 121.873901,120.658627 C138.231525,123.901847 153.932396,137.344168 153.65705,149.26591" id="Fill-75" fill="#F2B681"></path>
            <path d="M115.942733,147.326918 C115.942733,147.326918 118.747188,153.974601 131.427406,154.058284 C144.105584,154.144007 148.362238,158.299575 146.612257,161.663216 C150.297822,159.634418 149.192356,155.442112 149.192356,155.442112 C149.192356,155.442112 155.031743,157.593373 153.789624,164.38597 C155.500851,162.879679 156.99996,156.944321 154.942,151.943761 C156.722574,152.002951 158.060554,155.078806 158.90495,158.287328 C159.210891,155.435989 155.81495,136.544078 143.091901,128.290093 C146.987545,128.055373 148.390792,125.046873 147.897208,121.834269 C147.42402,123.718153 144.660356,131.570052 135.123168,122.389433 C125.583941,113.208813 108.069861,114.443646 101.836832,120.309608 C102.989208,116.180575 107.219347,113.216978 110.488832,112.618951 C108.133089,112.184209 97.9493465,116.058112 96.427802,122.79356 C96.319703,116.884735 98.8753267,113.572119 98.8753267,113.572119 C98.8753267,113.572119 93.2929307,116.95209 92.5607129,124.29781 C88.0185149,123.736522 79.1625545,127.479799 77.3330297,139.219888 C75.503505,150.959978 70.394297,157.585209 69.3459406,156.276899 C72.0810495,157.315791 75.8767525,154.378728 76.8108911,153.252071 C75.4810693,158.881272 72.7867525,163.992049 75.3729703,169.815149 C77.9632673,175.640291 82.4932277,184.822951 78.1447921,189.66431 C80.5229703,188.684608 82.7767327,184.571903 82.4463168,181.316437 C83.8944356,184.804582 81.6896238,191.456347 83.6252079,195.297593 C85.5607921,199.140881 82.6074455,205.063993 80.910495,206.568243 C84.0392475,205.876328 87.5290099,203.106631 88.0389109,199.542966 C89.0240396,199.440914 90.2070099,204.761918 88.501901,206.802963 C90.865802,205.261974 93.4336634,203.000496 93.6376238,197.275366 C94.8205941,197.75297 96.1116634,199.655224 95.0225149,204.031224 C96.2809505,203.306653 106.807347,197.052892 104.708594,187.757974 C102.611881,178.461015 104.00697,168.417034 105.175663,166.173925 C107.04598,167.265884 106.648257,173.478825 105.240931,177.76706 C107.292772,176.875123 109.660752,171.852112 109.52002,167.31691 C111.881881,168.276201 112.973069,173.093067 111.635089,174.676918 C113.456455,172.256239 114.174396,166.965851 112.987347,164.465571 C111.802337,161.96325 121.818832,161.959168 115.942733,147.326918" id="Fill-76" fill="#6D3A27"></path>
            <path d="M129.538733,197.434567 C129.538733,197.434567 134.050337,190.041903 136.852752,189.170377 C139.655168,188.298851 143.544693,192.052332 146.190059,191.580851 C148.833386,191.109369 145.286515,195.440466 143.616079,195.830306 C141.649901,194.368918 139.314554,193.0055 136.291861,193.540254 C133.267129,194.072966 131.103109,198.867381 131.46004,200.224675 C131.81697,201.579929 133.369109,204.470049 136.328574,203.688328 C139.286,202.908649 140.330277,201.935071 140.515881,200.463478 C142.049663,201.388071 142.492257,204.57006 140.411861,208.680724 C138.331465,212.789347 132.347267,211.597377 132.347267,211.597377 L118.590139,206.053899 C118.590139,206.053899 127.80099,204.35575 129.538733,197.434567" id="Fill-77" fill="#6D3A27"></path>
            <path d="M149.159723,172.33584 C149.159723,172.33584 150.879109,168.188437 149.494218,166.267813 C148.109327,164.345149 136.173564,169.078332 132.565505,167.392429 C138.217248,170.825466 148.896614,169.229369 149.159723,172.33584" id="Fill-78" fill="#6D3A27"></path>
            <path d="M82.8440396,210.062511 C82.8440396,210.062511 96.0525149,229.94841 105.300079,222.243466 C108.545089,227.652235 123.842119,254.781802 126.56295,267.707739 C129.281743,280.633675 118.926673,295.602698 115.265584,312.610724 C111.604495,329.61875 113.27697,350.71703 117.776337,364.061381 C96.3808911,364.016478 56.2802376,366.44328 47.9566139,376.138243 C48.5705347,356.038034 52.4090693,346.034873 50.4163762,331.659795 C46.9714851,306.808034 34.4401584,232.669123 82.8440396,210.062511" id="Fill-79" fill="#E05556"></path>
            <path d="M48.568495,318.115422 C48.8479208,320.364653 49.1314257,322.495504 49.4047327,324.465112 C69.4581188,316.435642 93.4071485,316.517284 113.609426,324.705955 C113.778713,322.340384 114.047941,320.013593 114.380396,317.7215 C93.6233465,310.175757 69.5845743,312.406619 48.568495,318.115422" id="Fill-80" fill="#E57679"></path>
            <path d="M50.2572871,330.529056 C50.3103168,330.902567 50.3674257,331.304653 50.4163762,331.659795 C51.0445743,336.180709 51.0935248,340.270963 50.8467327,344.379586 C70.8552475,337.182862 91.9753465,335.623504 113.348356,337.133877 C113.248416,334.298866 113.287168,331.43528 113.395267,328.58394 C92.3506337,323.50378 71.3039604,325.446854 50.2572871,330.529056" id="Fill-81" fill="#E57679"></path>
            <path d="M224.994238,304.548597 C224.994238,304.548597 234.912832,303.01169 241.939267,299.55416 C248.967743,296.096631 252.27598,294.367866 252.27598,294.367866 C252.27598,294.367866 266.604198,296.096631 269.910396,296.674246 C273.218634,297.249821 285.278812,309.155235 289.686396,311.653474 C289.274396,314.727287 282.725228,310.696224 279.557723,308.389843 C276.388178,306.085504 271.839861,303.395407 271.839861,303.395407 L277.214218,310.41456 C277.214218,310.41456 276.800178,318.186858 277.214218,319.338007 C275.835446,320.107481 273.924337,318.988989 274.046713,312.616847 C272.253901,309.351175 265.502812,306.085504 265.502812,306.085504 C265.502812,306.085504 270.049089,310.888082 270.877168,312.23109 C271.703208,313.576138 272.394634,319.433937 272.394634,319.433937 C272.394634,319.433937 270.864931,322.13628 268.258317,313.961896 C266.769406,309.291985 263.434653,310.310466 255.994178,312.039231 C248.553703,313.767996 246.76497,311.847373 246.76497,311.847373 L224.994238,317.992959 L224.158,304.356739" id="Fill-82" fill="#F2B681"></path>
            <path d="M138.629248,309.890011 C138.629248,309.890011 105.485683,262.264272 100.048099,246.956437 C94.6084752,231.648601 78.701604,222.227138 70.8124158,233.009978 C62.9252673,243.790776 70.8124158,264.305317 70.8124158,264.305317 C70.8124158,264.305317 109.05499,321.285164 127.013703,333.021172 C144.968337,344.757179 159.535188,335.062216 184.520337,329.449343 C203.474376,325.191724 224.470059,320.348325 233.507545,318.256254 L231.480178,302.031989 C203.482535,303.130071 138.629248,309.890011 138.629248,309.890011" id="Fill-83" fill="#E57679"></path>
            <path d="M111.998139,157.603578 C111.506594,159.587474 109.501663,160.795772 107.519168,160.305922 C105.538713,159.81403 104.331267,157.805642 104.822812,155.823787 L115.281901,113.608858 C115.773446,111.627004 117.778376,110.418705 119.760871,110.908556 C121.741327,111.400448 122.948772,113.406795 122.457228,115.39069 L111.998139,157.603578" id="Fill-84" fill="#A6A7A3"></path>
            <path d="M117.80897,168.619097 C116.218079,175.048388 109.715822,178.969235 103.28903,177.373138 C96.8642772,175.779082 92.946198,169.274272 94.5411683,162.844981 C96.134099,156.413649 102.636356,152.492802 109.059069,154.088899 C115.485861,155.682955 119.401901,162.187765 117.80897,168.619097" id="Fill-85" fill="#666763"></path>
            <path d="M490.385465,297.52128 L490.385465,313.457757 C490.385465,318.542 492.898257,323.030257 496.738832,325.777504 L514.301861,325.777504 C518.144475,323.030257 520.657267,318.542 520.657267,313.457757 L520.657267,297.52128 L490.385465,297.52128" id="Fill-86" fill="#D8D8D2"></path>
            <path d="M529.368416,326.306134 C529.368416,327.077649 528.744297,327.706291 527.971287,327.706291 L484.176911,327.706291 C483.403901,327.706291 482.775703,327.077649 482.775703,326.306134 C482.775703,325.532578 483.403901,324.905978 484.176911,324.905978 L527.971287,324.905978 C528.744297,324.905978 529.368416,325.532578 529.368416,326.306134" id="Fill-87" fill="#9A9B97"></path>
            <path d="M518.990911,320.756534 C518.134277,320.756534 517.636614,320.666728 517.589703,320.656522 L517.96295,318.652216 C517.983347,318.656299 520.498178,319.076754 524.216376,317.678638 C526.451782,316.837728 527.879505,310.020638 527.155446,306.034478 C526.906614,304.658813 526.508891,304.346534 526.445663,304.346534 L517.777347,304.346534 L517.777347,302.305489 L526.445663,302.305489 C527.230911,302.305489 528.632119,302.742272 529.162416,305.671172 C529.880356,309.636922 528.793248,318.141955 524.932277,319.589056 C522.358297,320.556511 520.273822,320.756534 518.990911,320.756534" id="Fill-88" fill="#D8D8D2"></path>
            <path d="M280.220594,297.809067 L280.220594,313.743504 C280.220594,318.827746 282.733386,323.318045 286.57396,326.06325 L304.13699,326.06325 C307.979604,323.318045 310.492396,318.827746 310.492396,313.743504 L310.492396,297.809067 L280.220594,297.809067" id="Fill-89" fill="#D8D8D2"></path>
            <path d="M319.203545,326.591881 C319.203545,327.365437 318.579426,327.994078 317.806416,327.994078 L274.01204,327.994078 C273.23903,327.994078 272.610832,327.365437 272.610832,326.591881 C272.610832,325.818325 273.23903,325.193765 274.01204,325.193765 L317.806416,325.193765 C318.579426,325.193765 319.203545,325.818325 319.203545,326.591881" id="Fill-90" fill="#9A9B97"></path>
            <path d="M308.82604,321.04228 C307.969406,321.04228 307.471743,320.952474 307.424832,320.94431 L307.798079,318.937963 C307.818475,318.942045 310.333307,319.3625 314.051505,317.966425 C316.286911,317.125515 317.714634,310.308425 316.990574,306.322265 C316.741743,304.946601 316.34402,304.63228 316.280792,304.63228 L307.612475,304.63228 L307.612475,302.591235 L316.280792,302.591235 C317.06604,302.591235 318.467248,303.028019 318.997545,305.958959 C319.715485,309.922668 318.628376,318.427701 314.767406,319.874802 C312.193426,320.844299 310.10895,321.04228 308.82604,321.04228" id="Fill-91" fill="#D8D8D2"></path>
            <path d="M757.400218,534.525358 C757.400218,535.335653 756.743465,535.992869 755.933743,535.992869 L727.705624,535.992869 C726.897941,535.992869 726.241188,535.335653 726.241188,534.525358 C726.241188,533.715063 726.897941,533.057847 727.705624,533.057847 L755.933743,533.057847 C756.743465,533.057847 757.400218,533.715063 757.400218,534.525358" id="Fill-92" fill="#C7713B"></path>
            <polygon id="Fill-93" fill="#C7713B" points="735.364337 534.525358 748.27299 534.525358 748.27299 336.423593 735.364337 336.423593"></polygon>
            <polygon id="Fill-94" fill="#EC9258" points="166.920594 343.581537 821.613069 343.581537 821.613069 327.706291 166.920594 327.706291"></polygon>
        </g>
    </g>
</svg>